Welcome!
…
--

``` r
library(tidyverse)
eugene_df <- tibble(
  paragraph = seq_along(paragraphs),
  description = paragraphs
)
eugene_df
```

```
## # A tibble: 133 × 2
##    paragraph description                                                                                                                                           
##        <int> <chr>                                                                                                                                                 
##  1         1 ""                                                                                                                                                    
##  2         2 "Eugene (/juːˈdʒiːn/ yoo-JEEN) is a city in and the county seat of Lane County, Oregon, United States. It is located at the southern end of the Willa…
##  3         3 "The second-most populous city in Oregon, Eugene had a population of 176,654 as of the 2020 United States census[11] and it covers city area of 44.21…
##  4         4 "Eugene is home to the University of Oregon, Bushnell University, and Lane Community College.[13][14][15] The city is noted for its natural environme…
##  5         5 "The first people to settle in the Eugene area were the Kalapuyans, also written Calapooia or Calapooya. They made \"seasonal rounds,\" moving around…
##  6         6 "Other Kalapuyan tribes occupied villages that are also now within Eugene city limits. Pee-you or Mohawk Calapooians, Winefelly or Pleasant Hill Cala…
##  7         7 "According to archeological evidence, the ancestors of the Kalapuyans may have been in Eugene for as long as 10,000 years.[25] In the 1800s their tra…
##  8         8 "French fur traders had settled seasonally in the Willamette Valley by the beginning of the 19th century. Their settlements were concentrated in the …
##  9         9 "In July 1830, \"intermittent fever\" struck the lower Columbia region and a year later, the Willamette Valley. Natives traced the arrival of the dis…
## 10        10 "As the demographic pressure from the settlers grew, the remaining Kalapuyans were forcibly removed to Indian reservations. Though some Natives avoid…
## # ℹ 123 more rows
```
…
* Third argument is how the text should processed. The default is `"words"`, meaning the text will be broken into words.

---
# Example

``` r
library(tidytext)
eugene_tidy_words <- eugene_df %>% 
  unnest_tokens(word, description)
eugene_tidy_words
```

```
## # A tibble: 8,242 × 2
##    paragraph word     
##        <int> <chr>    
##  1         2 eugene   
##  2         2 juːˈdʒiːn
##  3         2 yoo      
##  4         2 jeen     
##  5         2 is       
##  6         2 a        
##  7         2 city     
##  8         2 in       
##  9         2 and      
## 10         2 the      
## # ℹ 8,232 more rows
```

Not perfect, but pretty good

---
# What to do now?
Let's count some words!

``` r
eugene_tidy_words %>% 
  count(word, sort = TRUE)
```

```
## # A tibble: 2,584 × 2
##    word       n
##    <chr>  <int>
##  1 the      626
##  2 and      266
##  3 of       256
##  4 in       247
##  5 eugene   184
##  6 a        138
##  7 to       121
##  8 is        94
##  9 for       78
## 10 was       76
## # ℹ 2,574 more rows
```
…
--
An `anti_join()` does basically the opposite, by **removing** any rows that are in common between the two datasets.

---
# Look at the stop words
This dataset is available to you as soon as you load **tidytext**. 

There are three lexicons - I usually use all three.

``` r
stop_words 
```

```
## # A tibble: 1,149 × 2
##    word        lexicon
##    <chr>       <chr>  
##  1 a           SMART  
##  2 a's         SMART  
##  3 able        SMART  
##  4 about       SMART  
##  5 above       SMART  
##  6 according   SMART  
##  7 accordingly SMART  
##  8 across      SMART  
##  9 actually    SMART  
## 10 after       SMART  
## # ℹ 1,139 more rows
```

---
# Count
Let's try counting again without the stop words included.

.pull-left[

``` r
eugene_tidy_words %>% 
* anti_join(stop_words) %>%
  count(word, sort = TRUE)
```

```
## # A tibble: 2,296 × 2
##    word           n
##    <chr>      <int>
##  1 eugene       184
##  2 city          59
##  3 oregon        56
##  4 university    47
##  5 community     28
##  6 eugene's      26
##  7 lane          26
##  8 college       23
##  9 school        21
## 10 home          20
## # ℹ 2,286 more rows
```
…
