Intro to Visualizations & String Data
…
---
background-image:url(https://allisonhorst.github.io/palmerpenguins/reference/figures/lter_penguins.png)
background-size: contain

# Penguin data

---

```r
library(palmerpenguins)
penguins
```

```
## # A tibble: 344 × 8
##    species island    bill_length_mm bill_depth_mm flipper_length_mm
##    <fct>   <fct>              <dbl>         <dbl>             <int>
##  1 Adelie  Torgersen           39.1          18.7               181
##  2 Adelie  Torgersen           39.5          17.4               186
##  3 Adelie  Torgersen           40.3          18                 195
##  4 Adelie  Torgersen           NA            NA                  NA
##  5 Adelie  Torgersen           36.7          19.3               193
##  6 Adelie  Torgersen           39.3          20.6               190
##  7 Adelie  Torgersen           38.9          17.8               181
##  8 Adelie  Torgersen           39.2          19.6               195
##  9 Adelie  Torgersen           34.1          18.1               193
## 10 Adelie  Torgersen           42            20.2               190
## # … with 334 more rows, and 3 more variables: body_mass_g <int>,
## #   sex <fct>, year <int>
```
…
---
# Rearrange

```r
tuition %>%
  pivot_longer(`2004-05`:`2015-16`,
               names_to = "year", 
               values_to = "avg_tuition") 
```

```
## # A tibble: 600 × 3
##    State   year    avg_tuition
##    <chr>   <chr>         <dbl>
##  1 Alabama 2004-05    5682.838
##  2 Alabama 2005-06    5840.550
##  3 Alabama 2006-07    5753.496
##  4 Alabama 2007-08    6008.169
##  5 Alabama 2008-09    6475.092
##  6 Alabama 2009-10    7188.954
##  7 Alabama 2010-11    8071.134
##  8 Alabama 2011-12    8451.902
##  9 Alabama 2012-13    9098.069
## 10 Alabama 2013-14    9358.929
## # … with 590 more rows
```
…
--
Treat time (year) as a continuous variable

---
# Grouped points
Show change in tuition from 05-06 to 2015-16

```r
tuition %>% 
  select(State, `2005-06`, `2015-16`)
```

```
## # A tibble: 50 × 3
##    State       `2005-06` `2015-16`
##    <chr>           <dbl>     <dbl>
##  1 Alabama      5840.550  9751.101
##  2 Alaska       4632.623  6571.340
##  3 Arizona      5415.516 10646.28 
##  4 Arkansas     6082.379  7867.297
##  5 California   5527.881  9269.844
##  6 Colorado     5406.967  9748.188
##  7 Connecticut  8249.074 11397.34 
##  8 Delaware     8610.597 11676.22 
##  9 Florida      3924.234  6360.159
## 10 Georgia      4492.167  8446.961
## # … with 40 more rows
```

---

```r
lt <- tuition %>% 
  select(State, `2005-06`, `2015-16`) %>% 
  pivot_longer(`2005-06`:`2015-16`,
               names_to = "Year", 
               values_to = "Tuition")
lt
```

```
## # A tibble: 100 × 3
##    State      Year      Tuition
##    <chr>      <chr>       <dbl>
##  1 Alabama    2005-06  5840.550
##  2 Alabama    2015-16  9751.101
##  3 Alaska     2005-06  4632.623
##  4 Alaska     2015-16  6571.340
##  5 Arizona    2005-06  5415.516
##  6 Arizona    2015-16 10646.28 
##  7 Arkansas   2005-06  6082.379
##  8 Arkansas   2015-16  7867.297
##  9 California 2005-06  5527.881
## 10 California 2015-16  9269.844
## # … with 90 more rows
```
…
```r
tuition_l <- tuition %>%
    pivot_longer(-State,
                 names_to = "year", 
                 values_to = "avg_tuition") 

tuition_l
```

```
## # A tibble: 600 × 3
##    State   year    avg_tuition
##    <chr>   <chr>         <dbl>
##  1 Alabama 2004-05    5682.838
##  2 Alabama 2005-06    5840.550
##  3 Alabama 2006-07    5753.496
##  4 Alabama 2007-08    6008.169
##  5 Alabama 2008-09    6475.092
##  6 Alabama 2009-10    7188.954
##  7 Alabama 2010-11    8071.134
##  8 Alabama 2011-12    8451.902
##  9 Alabama 2012-13    9098.069
## 10 Alabama 2013-14    9358.929
## # … with 590 more rows
```
…
--

```r
library(tidyverse)
eugene_df <- tibble(
  paragraph = seq_along(paragraphs),
  description = paragraphs
)
eugene_df
```

```
## # A tibble: 149 × 2
##    paragraph
##        <int>
##  1         1
##  2         2
##  3         3
##  4         4
##  5         5
##  6         6
##  7         7
##  8         8
##  9         9
## 10        10
## # … with 139 more rows, and 1 more variable: description <chr>
```
…
* Third argument is how the text should processed. The default is `"words"`, meaning the text will be broken into words.

---
# Example

```r
library(tidytext)
eugene_tidy_words <- eugene_df %>% 
  unnest_tokens(word, description)
eugene_tidy_words
```

```
## # A tibble: 9,620 × 2
##    paragraph word     
##        <int> <chr>    
##  1         2 eugene   
##  2         2 juːˈdʒiːn
##  3         2 yoo      
##  4         2 jeen     
##  5         2 is       
##  6         2 a        
##  7         2 city     
##  8         2 in       
##  9         2 the      
## 10         2 u.s      
## # … with 9,610 more rows
```

Not perfect, but pretty good

---
# What to do now?
Let's count some words!

```r
eugene_tidy_words %>% 
  count(word, sort = TRUE)
```

```
## # A tibble: 2,875 × 2
##    word       n
##    <chr>  <int>
##  1 the      730
##  2 and      299
##  3 of       293
##  4 in       287
##  5 eugene   204
##  6 a        180
##  7 to       159
##  8 is        94
##  9 for       90
## 10 was       87
## # … with 2,865 more rows
```
…
--
An `anti_join()` does basically the opposite, by **removing** any rows that are in common between the two datasets.

---
# Look at the stop words
This dataset is available to you as soon as you load **tidytext**. 

There are three lexicons - I usually use all three.

```r
stop_words 
```

```
## # A tibble: 1,149 × 2
##    word        lexicon
##    <chr>       <chr>  
##  1 a           SMART  
##  2 a's         SMART  
##  3 able        SMART  
##  4 about       SMART  
##  5 above       SMART  
##  6 according   SMART  
##  7 accordingly SMART  
##  8 across      SMART  
##  9 actually    SMART  
## 10 after       SMART  
## # … with 1,139 more rows
```

---
# Count
Let's try counting again without the stop words included.

.pull-left[

```r
eugene_tidy_words %>% 
* anti_join(stop_words) %>%
  count(word, sort = TRUE)
```

```
## # A tibble: 2,581 × 2
##    word           n
##    <chr>      <int>
##  1 eugene       204
##  2 city          62
##  3 oregon        58
##  4 university    50
##  5 community     29
##  6 eugene's      27
##  7 lane          24
##  8 center        21
##  9 home          21
## 10 campus        20
## # … with 2,571 more rows
```
…
---
# Add the headers in 
I hid the code here because it's weird and inefficient but the HTML structure made it difficult. You can look at the source if you want. The new dataframe is called `eugene_tidy_words2`.

```
## # A tibble: 149 × 3
##    paragraph header 
##        <int> <chr>  
##  1         1 Intro  
##  2         2 Intro  
##  3         3 Intro  
##  4         4 History
##  5         5 History
##  6         6 History
##  7         7 History
##  8         8 History
##  9         9 History
## 10        10 History
## # … with 139 more rows, and 1 more variable: description <chr>
```
…
Not surprisingly, "eugene" appears to be the most common among multiple categories.

We might want to remove "eugene" as well.

```r
eugene_tidy_words2 %>% 
  unnest_tokens(word, description) %>% 
  count(header, word, sort = TRUE) %>% 
  anti_join(stop_words)
```

```
## # A tibble: 3,584 × 3
##    header           word           n
##    <chr>            <chr>      <int>
##  1 Arts and culture eugene        54
##  2 History          eugene        49
##  3 Infrastructure   eugene        20
##  4 History          university    19
##  5 Arts and culture church        17
##  6 History          city          17
##  7 Education        eugene        15
##  8 Education        school        14
##  9 History          police        14
## 10 History          protest       14
## # … with 3,574 more rows
```
…
```r
d
```

```
## # A tibble: 11,326 × 29
##    ALL_COHORT ALL_RATE CWD_COHORT CWD_RATE DATE_CUR ECD_COHORT ECD_RATE
##         <dbl> <chr>         <dbl> <chr>    <chr>         <dbl> <chr>   
##  1        252 80                3 PS       03OCT15         121 65-69   
##  2        398 75               47 70-79    03OCT15         233 65-69   
##  3       1020 89               51 40-49    03OCT15         175 75-79   
##  4        750 91               35 60-69    03OCT15         102 80-84   
##  5        128 55-59            15 LT50     03OCT15          68 40-44   
##  6        166 90-94             9 GE50     03OCT15          53 70-79   
##  7        336 90               30 60-79    03OCT15          35 60-69   
##  8        273 77               11 LT50     03OCT15          93 70-74   
##  9        134 70-74             4 PS       03OCT15          60 50-59   
## 10        266 58               33 50-59    03OCT15         195 55-59   
## # … with 11,316 more rows, and 22 more variables: FIPST <chr>,
## #   FILEURL <chr>, LEAID <chr>, LEANM <chr>, LEP_COHORT <dbl>,
## #   LEP_RATE <chr>, MAM_COHORT <dbl>, MAM_RATE <chr>, MAS_COHORT <dbl>,
## #   MAS_RATE <chr>, MBL_COHORT <dbl>, MBL_RATE <chr>, MHI_COHORT <dbl>,
## #   MHI_RATE <chr>, MTR_COHORT <dbl>, MTR_RATE <chr>, MWH_COHORT <dbl>,
## #   MWH_RATE <chr>, STNAM <chr>, YEAR <dbl>, PIPELINE <chr>,
## #   DL_INGESTION_DATETIME <dttm>
```
…
---
# Quick Check

```r
d %>% 
  select(LEANM, county) %>% 
  print(n = 15)
```

```
## # A tibble: 11,326 × 2
##    LEANM            county
##    <chr>            <lgl> 
##  1 Albertville City FALSE 
##  2 Marshall County  TRUE  
##  3 Hoover City      FALSE 
##  4 Madison City     FALSE 
##  5 Leeds City       FALSE 
##  6 Boaz City        FALSE 
##  7 Trussville City  FALSE 
##  8 Alexander City   FALSE 
##  9 Andalusia City   FALSE 
## 10 Anniston City    FALSE 
## 11 Arab City        FALSE 
## 12 Athens City      FALSE 
## 13 Attalla City     FALSE 
## 14 Auburn City      FALSE 
## 15 Autauga County   TRUE  
## # … with 11,311 more rows
```
…
* Lots of ways to do this. Use `base::gsub()` or `stringr::str_replace_all()`

* Replace everything after the space with nothing

--

```r
d %>% 
  select(LEANM) %>% 
  mutate(new_name = gsub(" .+", "", LEANM))
```

```
## # A tibble: 11,326 × 2
##    LEANM            new_name   
##    <chr>            <chr>      
##  1 Albertville City Albertville
##  2 Marshall County  Marshall   
##  3 Hoover City      Hoover     
##  4 Madison City     Madison    
##  5 Leeds City       Leeds      
##  6 Boaz City        Boaz       
##  7 Trussville City  Trussville 
##  8 Alexander City   Alexander  
##  9 Andalusia City   Andalusia  
## 10 Anniston City    Anniston   
## # … with 11,316 more rows
```

---
# Another way
There are other ways too, of course

```r
d %>% 
  select(LEANM) %>% 
  mutate(new_name = gsub(" City$| County$", "", LEANM))
```

```
## # A tibble: 11,326 × 2
##    LEANM            new_name   
##    <chr>            <chr>      
##  1 Albertville City Albertville
##  2 Marshall County  Marshall   
##  3 Hoover City      Hoover     
##  4 Madison City     Madison    
##  5 Leeds City       Leeds      
##  6 Boaz City        Boaz       
##  7 Trussville City  Trussville 
##  8 Alexander City   Alexander  
##  9 Andalusia City   Andalusia  
## 10 Anniston City    Anniston   
## # … with 11,316 more rows
```
…
