Visual Perception!
…
* [Regular expression](https://stringr.tidyverse.org/articles/regular-expressions.html) vignette

---
# A few quick examples

Please follow along

```r
library(edld652)
d <- get_data("EDFacts_acgr_lea_2011_2019")
d
```

```
## # A tibble: 11,326 × 29
##   ALL_COHORT ALL_RATE CWD_COHORT CWD_RATE DATE_CUR ECD_COHORT ECD_RATE FIPST
##        <dbl> <chr>         <dbl> <chr>    <chr>         <dbl> <chr>    <chr>
## 1        252 80                3 PS       03OCT15         121 65-69    01   
## 2        398 75               47 70-79    03OCT15         233 65-69    01   
## 3       1020 89               51 40-49    03OCT15         175 75-79    01   
## 4        750 91               35 60-69    03OCT15         102 80-84    01   
## 5        128 55-59            15 LT50     03OCT15          68 40-44    01   
## 6        166 90-94             9 GE50     03OCT15          53 70-79    01   
## # … with 11,320 more rows, and 21 more variables: FILEURL <chr>, LEAID <chr>,
## #   LEANM <chr>, LEP_COHORT <dbl>, LEP_RATE <chr>, MAM_COHORT <dbl>,
## #   MAM_RATE <chr>, MAS_COHORT <dbl>, MAS_RATE <chr>, MBL_COHORT <dbl>,
## #   MBL_RATE <chr>, MHI_COHORT <dbl>, MHI_RATE <chr>, MTR_COHORT <dbl>,
## #   MTR_RATE <chr>, MWH_COHORT <dbl>, MWH_RATE <chr>, STNAM <chr>, YEAR <dbl>,
## #   PIPELINE <chr>, DL_INGESTION_DATETIME <dttm>
```
…
---
# Quick Check

```r
d %>% 
  select(LEANM, county) %>% 
  print(n = 15)
```

```
## # A tibble: 11,326 × 2
##    LEANM            county
##    <chr>            <lgl> 
##  1 Albertville City FALSE 
##  2 Marshall County  TRUE  
##  3 Hoover City      FALSE 
##  4 Madison City     FALSE 
##  5 Leeds City       FALSE 
##  6 Boaz City        FALSE 
##  7 Trussville City  FALSE 
##  8 Alexander City   FALSE 
##  9 Andalusia City   FALSE 
## 10 Anniston City    FALSE 
## 11 Arab City        FALSE 
## 12 Athens City      FALSE 
## 13 Attalla City     FALSE 
## 14 Auburn City      FALSE 
## 15 Autauga County   TRUE  
## # … with 11,311 more rows
```
…
* Lots of ways to do this. Use `base::gsub()` or `stringr::str_replace_all()`

* Replace everything after the space with nothing

--

```r
d %>% 
  select(LEANM) %>% 
  mutate(new_name = gsub(" .+", "", LEANM))
```

```
## # A tibble: 11,326 × 2
##   LEANM            new_name   
##   <chr>            <chr>      
## 1 Albertville City Albertville
## 2 Marshall County  Marshall   
## 3 Hoover City      Hoover     
## 4 Madison City     Madison    
## 5 Leeds City       Leeds      
## 6 Boaz City        Boaz       
## # … with 11,320 more rows
```
--
You can also use `"\\s"` to mean "space"

---
# Another way
There are other ways too, of course

```r
d %>% 
  select(LEANM) %>% 
  mutate(new_name = gsub(" City$| County$", "", LEANM))
```

```
## # A tibble: 11,326 × 2
##   LEANM            new_name   
##   <chr>            <chr>      
## 1 Albertville City Albertville
## 2 Marshall County  Marshall   
## 3 Hoover City      Hoover     
## 4 Madison City     Madison    
## 5 Leeds City       Leeds      
## 6 Boaz City        Boaz       
## # … with 11,320 more rows
```
…
Handling the URLs. This is a bit artificial, but it illustrates escaping, which is important.

* Remember `.` is a special character, so needs to be escaped

* `\` itself is a special character so it needs to be escaped. Functionally, then, you escape special characters with `\\`, not `\`.

---

```r
d %>% 
  select(FILEURL) 
```

```
## # A tibble: 11,326 × 1
##   FILEURL                                                                     
##   <chr>                                                                       
## 1 https://www2.ed.gov/about/inits/ed/edfacts/data-files/acgr-lea-sy2010-11.csv
## 2 https://www2.ed.gov/about/inits/ed/edfacts/data-files/acgr-lea-sy2010-11.csv
## 3 https://www2.ed.gov/about/inits/ed/edfacts/data-files/acgr-lea-sy2010-11.csv
## 4 https://www2.ed.gov/about/inits/ed/edfacts/data-files/acgr-lea-sy2010-11.csv
## 5 https://www2.ed.gov/about/inits/ed/edfacts/data-files/acgr-lea-sy2010-11.csv
## 6 https://www2.ed.gov/about/inits/ed/edfacts/data-files/acgr-lea-sy2010-11.csv
## # … with 11,320 more rows
```
…
