Colors!
…
# Some examples

.footnote[See more about the Okabe Ito palette origins [here]( http://jfly.iam.u-tokyo.ac.jp/color/)]

---
# How do we use them?
Imagine we have data like this

```r
popgrowth_df
```

```
## # A tibble: 51 × 7
##   region    division           state          pop2000  pop2010    popgrowth
##   <fct>     <chr>              <fct>            <dbl>    <dbl>        <dbl>
## 1 Midwest   East North Central Michigan       9938444  9883640 -0.005514344
## 2 Northeast New England        Rhode Island   1048319  1052567  0.004052202
## 3 South     West South Central Louisiana      4468976  4533372  0.01440956 
## 4 Midwest   East North Central Ohio          11353140 11536504  0.01615095 
## 5 Northeast Middle Atlantic    New York      18976457 19378102  0.02116544 
## 6 South     South Atlantic     West Virginia  1808344  1852994  0.02469110 
## # … with 45 more rows, and 1 more variable: area <dbl>
```
…
First the data:

```r
hm <- diamonds %>% 
  select(table, price, depth, carat) %>% 
  corrr::correlate() %>% 
  pivot_longer(-term) %>% 
  mutate(name = fct_reorder(name, value),
         term = fct_reorder(term, value))
hm
```

```
## # A tibble: 16 × 3
##   term  name       value
##   <fct> <fct>      <dbl>
## 1 table table NA        
## 2 table price  0.1271339
## 3 table depth -0.2957785
## 4 table carat  0.1816175
## 5 price table  0.1271339
## 6 price price NA        
## # … with 10 more rows
```
…
