Visualizing uncertainty
…
05:00

* Use the Palmer penguins dataset

* Plot the mean `bill_length_mm` for each species with 95% confidence intervals

```r
library(palmerpenguins)
penguins 
```

```
## # A tibble: 344 × 8
##   species island    bill_length_mm bill_depth_mm
##   <fct>   <fct>              <dbl>         <dbl>
## 1 Adelie  Torgersen           39.1          18.7
## 2 Adelie  Torgersen           39.5          17.4
## 3 Adelie  Torgersen           40.3          18  
## 4 Adelie  Torgersen           NA            NA  
## 5 Adelie  Torgersen           36.7          19.3
## 6 Adelie  Torgersen           39.3          20.6
## # … with 338 more rows, and 4 more variables:
## #   flipper_length_mm <int>, body_mass_g <int>,
## #   sex <fct>, year <int>
```
…
---
# Visualize the sampling distributions

```r
sample_means <- tibble(iter = rep(1:1000, 2),
                       sample = rep(c(10, 100), each = 1000),
                       mean = c(map_dbl(samples, mean),
                                map_dbl(samples2, mean))
                       )
sample_means
```

```
## # A tibble: 2,000 × 3
##    iter sample      mean
##   <int>  <dbl>     <dbl>
## 1     1     10  95.75441
## 2     2     10 103.2204 
## 3     3     10  99.91284
## 4     4     10 102.2169 
## 5     5     10 101.2308 
## 6     6     10  96.37082
## # … with 1,994 more rows
```
…
---
# Visualize with standard errors

```r
tidied_m <- broom::tidy(m, conf.int = TRUE)

tidied_m
```

```
## # A tibble: 8 × 7
##   term          estimate std.error  statistic
##   <chr>            <dbl>     <dbl>      <dbl>
## 1 (Intercept)  28.77682  1.472892   19.53763 
## 2 displ        -2.171562 0.1746638 -12.43281 
## 3 classcompact -3.599125 1.252190   -2.874265
## 4 classmidsize -3.675526 1.206253   -3.047061
## 5 classminivan -5.595070 1.305993   -4.284151
## 6 classpickup  -6.182466 1.121448   -5.512931
## # … with 2 more rows, and 3 more variables:
## #   p.value <dbl>, conf.low <dbl>,
## #   conf.high <dbl>
```
…
01:00

---
# The hard part
* Getting your data in the format you want a table in

* Utilize your `pivot_*` skills regularly

```r
library(fivethirtyeight)
flying
```

```
## # A tibble: 1,040 × 27
##   respondent_id gender age   height  
##           <dbl> <chr>  <ord> <ord>   
## 1    3436139758 <NA>   <NA>   <NA>   
## 2    3434278696 Male   30-44 "6'3\"" 
## 3    3434275578 Male   30-44 "5'8\"" 
## 4    3434268208 Male   30-44 "5'11\""
## 5    3434250245 Male   30-44 "5'7\"" 
## 6    3434245875 Male   30-44 "5'9\"" 
## # … with 1,034 more rows, and 23 more variables:
## #   children_under_18 <lgl>,
## #   household_income <ord>, education <ord>,
## #   location <chr>, frequency <ord>,
## #   recline_frequency <ord>,
## #   recline_obligation <lgl>, recline_rude <ord>,
## #   recline_eliminate <lgl>, …
```

---

```r
flying %>% 
  count(gender, age, recline_frequency) 
```

```
## # A tibble: 53 × 4
##   gender age   recline_frequency       n
##   <chr>  <ord> <ord>               <int>
## 1 Female 18-29 Never                  24
## 2 Female 18-29 Once in a while        36
## 3 Female 18-29 About half the time    10
## 4 Female 18-29 Usually                13
## 5 Female 18-29 Always                 10
## 6 Female 18-29 <NA>                   19
## # … with 47 more rows
```

---

```r
smry <- flying %>% 
  count(gender, age, recline_frequency) %>% 
  drop_na(age,recline_frequency) %>% 
  pivot_wider(names_from = "age", 
              values_from = "n") 
smry
```

```
## # A tibble: 10 × 6
##   gender recline_frequency   `18-29` `30-44`
##   <chr>  <ord>                 <int>   <int>
## 1 Female Never                    24      21
## 2 Female Once in a while          36      25
## 3 Female About half the time      10      22
## 4 Female Usually                  13      22
## 5 Female Always                   10      21
## 6 Male   Never                    24      17
## # … with 4 more rows, and 2 more variables:
## #   `45-60` <int>, `> 60` <int>
```
…
